…
```r
#Aggregate quarter year 
coal_clean2 <- coal_clean %>% unite(date, c("year", "quarter"), sep = "Q")

#sum total exports for each year and their respective quarter
coal_clean2 %>% 
  #filter(coal_origin_county = "United States")
  group_by(date) %>%
  summarise(sum(total, na.rm = T))  
```

```
## # A tibble: 75 x 2
##    date   `sum(total, na.rm = T)`
##    <chr>                    <dbl>
##  1 2002Q1                 9252584
##  2 2002Q2                11042519
##  3 2002Q3                 9256554
##  4 2002Q4                10049584
##  5 2003Q1                 8517778
##  6 2003Q2                11449798
##  7 2003Q3                12093944
##  8 2003Q4                10951988
##  9 2004Q1                 9688063
## 10 2004Q2                15255342
## # ... with 65 more rows
```
…
*Hints: See `?tidyr::complete()` for some convenience options. Again, don't forget to print `coal_country` after you've updated the data frame so that I can see the results.*

```r
coal_country <- coal_clean2 %>%  
  complete(coal_destination_country, date)
```


```r
coal_country
```

```
## # A tibble: 17,590 x 13
##    coal_destination_c~ date  type  customs_district coal_origin_coun~ steam_coal
##    <chr>               <chr> <chr> <chr>            <chr>                  <dbl>
##  1 Albania             2002~ <NA>  <NA>             <NA>                      NA
##  2 Albania             2002~ <NA>  <NA>             <NA>                      NA
##  3 Albania             2002~ <NA>  <NA>             <NA>                      NA
##  4 Albania             2002~ <NA>  <NA>             <NA>                      NA
##  5 Albania             2003~ <NA>  <NA>             <NA>                      NA
##  6 Albania             2003~ <NA>  <NA>             <NA>                      NA
##  7 Albania             2003~ <NA>  <NA>             <NA>                      NA
##  8 Albania             2003~ <NA>  <NA>             <NA>                      NA
##  9 Albania             2004~ <NA>  <NA>             <NA>                      NA
## 10 Albania             2004~ <NA>  <NA>             <NA>                      NA
## # ... with 17,580 more rows, and 7 more variables: steam_revenue <dbl>,
## #   metallurgical <dbl>, metallurgical_revenue <dbl>, total <dbl>,
## #   total_revenue <dbl>, coke <dbl>, coke_revenue <dbl>
```
…
